ENVS 154 Final
…
sst_clean <- sst_clean |> 
  group_by(year, month) |> 
  summarise(mean_monthly_sst= round(mean(temp), 1))

`summarise()` has grouped output by 'year'. You can override using the
`.groups` argument.

sst_clean$year <- factor(sst_clean$year, levels = c("2018", "2019", "2020", "2021", "2022", "2023"))

slice_sample(sst_clean) |> 
  print(n=5)

# A tibble: 6 × 3
# Groups:   year [6]
  year  month mean_monthly_sst
  <fct> <ord>            <dbl>
1 2018  Jul               18.2
2 2019  Jun               15.8
3 2020  Jan               14.6
4 2021  Aug               17.7
5 2022  Nov               15  
# ℹ 1 more row
…
